[
  {
    "title": "Sex",
    "keys": [
      "sex-total",
      "sex-male",
      "sex-female"
    ],
    "labels": [
      "Total",
      "Male",
      "Female"
    ]
  },
  {
    "title": "Race",
    "keys": [
      "race-total",
      "race-white_alone",
      "race-black_or_african_american_alone",
      "race-american_indian_and_alaska_native_alone",
      "race-asian_alone",
      "race-native_hawaiian_and_other_pacific_islander_alone",
      "race-some_other_race_alone",
      [
        "race-two_or_more_races",
        "race-two_races_including_some_other_race",
        "race-two_races_exclude_some_other_race_and_three_or_more_races"
      ]
    ],
    "labels": [
      "Total",
      "White Alone",
      "Black or African American Alone",
      "American Indian and Alaska Native Alone",
      "Asian Alone",
      "Native Hawaiian and Other Pacific Islander Alone",
      "Some Other Race Alone",
      [
        "Two or More Races",
        "Two Races Including Some Other Race",
        "Two Races Exclude Some Other Race and Three or More Races"
      ]
    ]
  },
  {
    "title": "Hispanic Or Latino Origin By Race",
    "keys": [
      "hispanic_or_latino_origin-race_total",
      [
        "hispanic_or_latino_origin-race_not_hispanic_or_latino",
        "not_hispanic_or_latino_origin-race_white_alone",
        "not_hispanic_or_latino_origin-race_black_or_african_american",
        "not_hispanic_or_latino_origin-race_ameri_indian_and_ak_native",
        "not_hispanic_or_latino_origin-race_asian_alone",
        "not_hispanic_or_latino_origin-race_nativehi_and_pacificislander",
        "not_hispanic_or_latino_origin-race_some_other_race_alone",
        "not_hispanic_or_latino_origin-race_two_or_more_races"
      ],
      [
        "hispanic_or_latino_origin-race_hispanic_or_latino",
        "hispanic_or_latino_origin-race_white_alone",
        "hispanic_or_latino_origin-race_black_or_african_american_alone",
        "hispanic_or_latino_origin-race_ameri_indian_and_ak_native_alone",
        "hispanic_or_latino_origin-race_asian_alone",
        "hispanic_or_latino_origin-race_nativehi_and_pacificislander",
        "hispanic_or_latino_origin-race_some_other_race_alone",
        "hispanic_or_latino_origin-race_two_or_more_races"
      ]
    ],
    "labels": [
      "Total",
      [
        "Not Hispanic or Latino",
        "White Alone",
        "Black or African American",
        "American Indian and AK Native",
        "Asian Alone",
        "Native Hawaiian and Pacific Islander",
        "Some Other Race Alone",
        "Two or More Races"
      ],
      [
        "Hispanic or Latino",
        "White Alone",
        "Black or African American Alone",
        "American Indian and AK Native Alone",
        "Asian Alone",
        "Native Hawaiian and Pacific Islander",
        "Some Other Race Alone",
        "Two or More Races"
      ]
    ]
  },
  {
    "title": "Educational Attainment For The Population 25 Years And Over",
    "keys": [
      "educational_attainment-25_years_and_over_total",
      "educational_attainment-25_years_and_over_no_schooling_completed",
      "educational_attainment-25_years_and_over_nursery_school",
      "educational_attainment-25_years_and_over_kindergarten",
      "educational_attainment-25_years_and_over_1st_grade",
      "educational_attainment-25_years_and_over_2nd_grade",
      "educational_attainment-25_years_and_over_3rd_grade",
      "educational_attainment-25_years_and_over_4th_grade",
      "educational_attainment-25_years_and_over_5th_grade",
      "educational_attainment-25_years_and_over_6th_grade",
      "educational_attainment-25_years_and_over_7th_grade",
      "educational_attainment-25_years_and_over_8th_grade",
      "educational_attainment-25_years_and_over_9th_grade",
      "educational_attainment-25_years_and_over_10th_grade",
      "educational_attainment-25_years_and_over_11th_grade",
      "educational_attainment-25_years_and_over_12th_grade_no_diploma",
      "educational_attainment-25_years_and_over_high_school_diploma",
      "educational_attainment-25_years_and_over_ged_or_alternative",
      "education-25_years_and_over_college_less_than_1_year",
      "education-25_years_and_over_college_1_or_more_years_no_degree",
      "educational_attainment-25_years_and_over_associate's_degree",
      "educational_attainment-25_years_and_over_bachelor's_degree",
      "educational_attainment-25_years_and_over_master's_degree",
      "educational_attainment-25_years_and_over_professional_degree",
      "educational_attainment-25_years_and_over_doctorate_degree"
    ],
    "labels": [
      "Total",
      "No Schooling Completed",
      "Nursery School",
      "Kindergarten",
      "1st Grade",
      "2nd Grade",
      "3rd Grade",
      "4th Grade",
      "5th Grade",
      "6th Grade",
      "7th Grade",
      "8th Grade",
      "9th Grade",
      "10th Grade",
      "11th Grade",
      "12th Grade No Diploma",
      "Regular High School Diploma",
      "GED or Alternative Credential",
      "Some college, less than 1 year",
      "Some college, 1 or more years, no degree",
      "Associate's Degree",
      "Bachelor's Degree",
      "Master's Degree",
      "Professional School Degree",
      "Doctorate Degree"
    ]
  },
  {
    "title": "Veteran Status for Civil Population 18 Years and Over*",
    "keys": [
      "veteran_status_for_civil_population_18_years_and_over_total",
      "veteran_status_for_civil_population_18_years_and_over_veteran",
      "veteran_status_for_civil_population_18_years_and_over_nonvet"
    ],
    "labels": [
      "Total",
      "Veteran",
      "Non-Veteran"
    ]
  },
  {
    "title": "Employment Status for the Population 16 Years and Over",
    "keys": [
      "employment_status_for_the_population_16_years_and_up_total",
      [
        "employment_status_population_16_years_and_up_in_labor_force",
        "employment_status_population_16_years_and_up_civil_labor_force",
        "employment_status_population_16_years_and_up_armed_forces"
      ],
      "employment_status_population_16_years_and_up_not_in_labor_force"
    ],
    "labels": [
      "Total",
      [
        "In Labor Force",
        "Civil Labor Force",
        "Armed Forces"
      ],
      "Not in Labor Force"
    ]
  },
  {
    "title": "Hispanic Or Latino Origin By Specific Origin*",
    "keys": [
      "hispanic_or_latino_origin-specific_origin-total",
      "hispanic_or_latino_origin-specific_not_hispanic_or_latino",
      [
        "hispanic_or_latino_origin-specific_origin_hispanic_or_latino",
        "hispanic_or_latino_origin-specific_origin_mexican",
        "hispanic_or_latino_origin-specific_origin_puerto_rican",
        "hispanic_or_latino_origin-specific_origin_cuban",
        "hispanic_or_latino_origin-specific_origin_dominican_(dr)",
        "hispanic_or_latino_origin-specific_origin_central_american",
        "hispanic_or_latino_origin-specific_origin_south_american",
        "hispanic_or_latino_origin-specific_origin_other"
      ]
    ],
    "labels": [
      "Total",
      "Not Hispanic or Latino",
      [
        "Hispanic or Latino",
        "Mexican",
        "Puerto Rican",
        "Cuban",
        "Dominican (DR)",
        "Central American",
        "South American",
        "Other"
      ]
    ]
  },
  {
    "title": "Nativity*",
    "keys": [
      "nativity_total",
      "nativity_native",
      "nativity_foreign_born"
    ],
    "labels": [
      "Total",
      "Native",
      "Foreign Born"
    ]
  },
  {
    "title": "Poverty Status In The Past 12 Months By Sex*",
    "keys": [
      "poverty_status_in_the_past_12_months_by_sex_total",
      [
        "poverty_status_in_the_past_12_months_by_sex_below_poverty_level",
        "poverty_status_in_the_past_12_months_by_sex_male",
        "poverty_status_in_the_past_12_months_by_sex_female"
      ],
      [
        "poverty_status_past_12_months_by_sex_at_poverty_level_or_above",
        "poverty_status_in_the_past_12_months_by_sex_male_1",
        "poverty_status_in_the_past_12_months_by_sex_female_1"
      ]
    ],
    "labels": [
      "Total",
      [
        "Income in the past 12 months below poverty level:",
        "Male",
        "Female"
      ],
      [
        "Income in the past 12 months at or above poverty level:",
        "Male",
        "Female"
      ]
    ]
  },
  {
    "title": "Poverty Status In The Past 12 Months By Age*",
    "keys": [
      "poverty_status_in_the_past_12_months_by_age_total",
      [
        "poverty_status_past_12_months_by_age_income_below_poverty_level",
        "poverty_status_in_the_past_12_months_age_under_6_years",
        "poverty_status_in_the_past_12_months_age_6_to_11_years",
        "poverty_status_in_the_past_12_months_age_12_to_17_years",
        "poverty_status_in_the_past_12_months_age_18_to_59_years",
        "poverty_status_in_the_past_12_months_age_60_to_74_years",
        "poverty_status_in_the_past_12_months_age_75_to_84_years",
        "poverty_status_in_the_past_12_months_age_85_years_and_over"
      ],
      [
        "above_poverty_status_by_age_income_above_poverty_level",
        "above_poverty_status_in_the_past_12_months_age_under_6_years",
        "above_poverty_status_in_the_past_12_months_age_6_to_11_years",
        "above_poverty_status_in_the_past_12_months_age_12_to_17_years",
        "above_poverty_status_in_the_past_12_months_age_18_to_59_years",
        "above_poverty_status_in_the_past_12_months_age_60_to_74_years",
        "above_poverty_status_in_the_past_12_months_age_75_to_84_years",
        "above_poverty_status_in_the_past_12_months_age_85_years_and_up"
      ]
    ],
    "labels": [
      "Total",
      [
        "Income in the past 12 months below poverty level:",
        "Under 6 Years",
        "6 to 11 Years",
        "12 to 17 Years",
        "18 to 59 Years",
        "60 to 74 Years",
        "75 to 84 Years",
        "85 Years and Over"
      ],
      [
        "Income in the past 12 months at or above poverty level:",
        "Under 6 Years",
        "6 to 11 Years",
        "12 to 17 Years",
        "18 to 59 Years",
        "60 to 74 Years",
        "75 to 84 Years",
        "85 Years and Up"
      ]
    ]
  },
  {
    "title": "Population in Poverty by Race*",
    "keys": [
      "poverty_status_in_the_past_12_months_by_age_total_1",
      "population_in_poverty_by_race_white_alone",
      "population_in_poverty_by_race_black_or_african_american_alone",
      "population_in_poverty_by_race_american_indian_and_alaska_native",
      "population_in_poverty_by_race_asian_alone",
      "population_in_poverty_by_race_native_hi_and_pacific_islander",
      "population_in_poverty_by_race_some_other_race_alone",
      "population_in_poverty_by_race_two_or_more_races"
    ],
    "labels": [
      "Total",
      "White Alone",
      "Black or African American Alone",
      "American Indian and Alaska Native",
      "Asian Alone",
      "Native Hawaiian and Other Pacific Islander alone",
      "Some Other Race Alone",
      "Two or More Races"
    ]
  },
  {
    "title": "Age by Disability Status*",
    "keys": [
      "age_by_disability_status_total",
      [
        "age_by_disability_status_under_19_years",
        "age_by_disability_status_with_a_disability",
        "age_by_disability_status_no_disability"
      ],
      [
        "age_by_disability_status_19_to_64_years",
        "age_by_disability_status_with_a_disability_1",
        "age_by_disability_status_no_disability_1"
      ],
      [
        "age_by_disability_status_65_years_and_over",
        "age_by_disability_status_with_a_disability_2",
        "age_by_disability_status_no_disability_2"
      ]
    ],
    "labels": [
      "Total",
      [
        "Under 19 Years",
        "With a Disability",
        "No Disability"
      ],
      [
        "19 to 64 Years",
        "With a Disability",
        "No Disability"
      ],
      [
        "65 Years and Over",
        "With a Disability",
        "No Disability"
      ]
    ]
  },
  {
    "title": "American Indian And Alaska Native Alone Or In Combination With One Or More Other Races*",
    "keys": [
      "ameri_indian_and_ak_native_alone_or_with_other_races-total",
      "ameri_indian_and_ak_native_alone_or_with_other_races-cherokee",
      "ameri_indian_and_ak_native_alone_or_with_other_races-chippewa",
      "ameri_indian_and_ak_native_alone_or_with_other_races-navajo",
      "ameri_indian_and_ak_native_alone_or_with_other_races-sioux"
    ],
    "labels": [
      "Total",
      "Cherokee",
      "Chippewa",
      "Navajo",
      "Sioux"
    ]
  },
  {
    "title": "Household Type By Household Size",
    "keys": [
      "household_type_by_household_size_total",
      [
        "household_type_by_household_size_family_households",
        "family_household_type_by_household_size_2-person_household",
        "family_household_type_by_household_size_3-person_household",
        "family_household_type_by_household_size_4-person_household",
        "family_household_type_by_household_size_5-person_household",
        "family_household_type_by_household_size_6-person_household",
        "family_household_type_by_household_size_7-or-more"
      ],
      [
        "household_type_by_household_size_nonfamily_households",
        "household_type_by_household_size_1-person_household",
        "household_type_by_household_size_2-person_household",
        "household_type_by_household_size_3-person_household",
        "household_type_by_household_size_4-person_household",
        "household_type_by_household_size_5-person_household",
        "household_type_by_household_size_6-person_household",
        "household_type_by_household_size_7-or-more_person_household"
      ]
    ],
    "labels": [
      "Total",
      [
        "Family Households",
        "2-Person Household",
        "3-Person Household",
        "4-Person Household",
        "5-Person Household",
        "6-Person Household",
        "7 or More"
      ],
      [
        "Nonfamily Households",
        "1-Person Household",
        "2-Person Household",
        "3-Person Household",
        "4-Person Household",
        "5-Person Household",
        "6-Person Household",
        "7 or More Person Household"
      ]
    ]
  },
  {
    "title": "Household Type",
    "keys": [
      "household_type_total_x",
      [
        "household_type_family_households_x",
        "household_type_married-couple_family_x",
        "household_type_other_family_x"
      ],
      [
        "household_type_nonfamily_households_x",
        "household_type_householder_living_alone_x",
        "household_type_householder_not_living_alone_x"
      ]
    ],
    "labels": [
      "Total",
      [
        "Family Households",
        "Married-Couple Family",
        "Other Family"
      ],
      [
        "Nonfamily Households",
        "Householder Living Alone",
        "Householder Not Living Alone"
      ]
    ]
  },
  {
    "title": "Household Income In The Past 12 Months",
    "keys": [
      "household_income_in_the_past_12_months__total",
      "household_income_in_the_past_12_months__less_than_$10,000",
      "household_income_in_the_past_12_months__$10,000_to_$14,999",
      "household_income_in_the_past_12_months__$15,000_to_$19,999",
      "household_income_in_the_past_12_months__$20,000_to_$24,999",
      "household_income_in_the_past_12_months__$25,000_to_$29,999",
      "household_income_in_the_past_12_months__$30,000_to_$34,999",
      "household_income_in_the_past_12_months__$35,000_to_$39,999",
      "household_income_in_the_past_12_months__$40,000_to_$44,999",
      "household_income_in_the_past_12_months__$45,000_to_$49,999",
      "household_income_in_the_past_12_months__$50,000_to_$59,999",
      "household_income_in_the_past_12_months__$60,000_to_$74,999",
      "household_income_in_the_past_12_months__$75,000_to_$99,999",
      "household_income_in_the_past_12_months__$100,000_to_$124,999",
      "household_income_in_the_past_12_months__$125,000_to_$149,999",
      "household_income_in_the_past_12_months__$150,000_to_$199,999",
      "household_income_in_the_past_12_months__$200,000_or_more"
    ],
    "labels": [
      "Total",
      "Less than $10,000",
      "$10,000 to $14,999",
      "$15,000 to $19,999",
      "$20,000 to $24,999",
      "$25,000 to $29,999",
      "$30,000 to $34,999",
      "$35,000 to $39,999",
      "$40,000 to $44,999",
      "$45,000 to $49,999",
      "$50,000 to $59,999",
      "$60,000 to $74,999",
      "$75,000 to $99,999",
      "$100,000 to $124,999",
      "$125,000 to $149,999",
      "$150,000 to $199,999",
      "$200,000 or more"
    ]
  },
  {
    "title": "Gross Rent as a Percentage of Household Income",
    "keys": [
      "gross_rent_as_a_percentage_of_household_income_total",
      "gross_rent_as_a_percentage_of_household_income_less_than_10",
      "gross_rent_as_a_percentage_of_household_income_10.0_to_14.9",
      "gross_rent_as_percentage_of_household_income_15.0_to_19.9",
      "gross_rent_as_a_percentage_of_household_income_20.0_to_24.9",
      "gross_rent_as_a_percentage_of_household_income_25.0_to_29.9",
      "gross_rent_as_a_percentage_of_household_income_30.0_to_34.9",
      "gross_rent_as_a_percentage_of_household_income_35.0_to_39.9",
      "gross_rent_as_a_percentage_of_household_income_40.0_to_49.9",
      "gross_rent_as_a_percentage_of_household_income_50.0_or_more",
      "gross_rent_as_a_percentage_of_household_income_not_computed"
    ],
    "labels": [
      "Total",
      "Less than 10%",
      "10.0 to 14.9%",
      "15.0 to 19.9%",
      "20.0 to 24.9%",
      "25.0 to 29.9%",
      "30.0 to 34.9%",
      "35.0 to 39.9%",
      "40.0 to 49.9%",
      "50.0 or more",
      "Not Computed"
    ]
  },
  {
    "title": "Mortgage Status By Monthly Costs As A Percentage Of Household Income",
    "keys": [
      "housing_units_with_a_mortgage_as_percent_of_income",
      [
        "housing_units_with_a_mortgage_total",
        "housing_units_with_a_mortgage_less_than_10.0_percent_of_income",
        "housing_units_with_a_mortgage_10.0_to_14.9_percent_of_income",
        "housing_units_with_a_mortgage_15.0_to_19.9_percent_of_income",
        "housing_units_with_a_mortgage_20.0_to_24.9_percent_of_income",
        "housing_units_with_a_mortgage_25.0_to_29.9_percent_of_income",
        "housing_units_with_a_mortgage_30.0_to_34.9_percent_of_income",
        "housing_units_with_a_mortgage_35.0_to_39.9_percent_of_income",
        "housing_units_with_a_mortgage_40.0_to_49.9_percent_of_income",
        "housing_units_with_a_mortgage_50.0_and_over_percent_of_income",
        "housing_units_with_a_mortgage_as_percent_of_income_not_computed"
      ],
      [
        "housing_units_without_a_mortgage_total",
        "housing_units_without_a_mortgage_less_than_10.0_percent",
        "housing_units_without_a_mortgagee_10.0_to_14.9_percent",
        "housing_units_without_a_mortgage_15.0_to_19.9_percent",
        "housing_units_without_a_mortgage_20.0_to_24.9_percent",
        "housing_units_without_a_mortgage_25.0_to_29.9_percent",
        "housing_units_without_a_mortgage_30.0_to_34.9_percent",
        "housing_units_without_a_mortgage_35.0_to_39.9_percent",
        "housing_units_without_a_mortgage_40.0_to_49.9_percent",
        "housing_units_without_a_mortgage_50.0_percent_or_more",
        "housing_units_without_a_mortgage_not_computed"
      ]
    ],
    "labels": [
      "Total",
      [
        "Housing units with a mortgage",
        "Less than 10.0%",
        "10.0 to 14.9%",
        "15.0 to 19.9%",
        "20.0 to 24.9%",
        "25.0 to 29.9%",
        "30.0 to 34.9%",
        "35.0 to 39.9%",
        "40.0 to 49.9%",
        "50.0 and Over",
        "Not Computed"
      ],
      [
        "Housing units without a mortgage",
        "Less than 10.0%",
        "10.0 to 14.9%",
        "15.0 to 19.9%",
        "20.0 to 24.9%",
        "25.0 to 29.9%",
        "30.0 to 34.9%",
        "35.0 to 39.9%",
        "40.0 to 49.9%",
        "50.0 or More",
        "Not Computed"
      ]
    ]
  },
  {
    "title": "Computers in Household",
    "keys": [
      "computers_in_household_total",
      [
        "computers_in_household_one_or_more_types_of_devices",
        "computers_in__household_desktop_or_laptop",
        "computers_in_household_phone_or_portable_wireless_computer"
      ],
      "computers_in__household_no_computer"
    ],
    "labels": [
      "Total",
      [
        "Has one or more types of computing devices:",
        "Desktop or Laptop",
        "Smartphone, tablet or other portable wireless computer or other computer"
      ],
      "No Computer"
    ]
  },
  {
    "title": "Internet Subscriptions in Household",
    "keys": [
      "internet_subscriptions_in_household_total",
      [
        "household_with_an_internet_subscription",
        "Household_Dial-up_alone",
        "household_broadband_such_as_cable_fiber_optic_or_dsl",
        "household_satellite_internet_service",
        "household_other_internet_subcription_service"
      ],
      "household_internet_access_without_a_subscription",
      "household_no_internet_access"
    ],
    "labels": [
      "Total",
      [
        "With an Internet Subscription",
        "Dial-up Alone",
        "Broadband such as Cable, Fiber Optic, or DSL",
        "Satellite Internet Service",
        "Other Internet Subscription Service"
      ],
      "Internet Access without a Subscription",
      "No Internet Access"
    ]
  },
  {
    "title": "Household Language",
    "keys": [
      "household_language_total",
      "household_language_english_only",
      [
        "household_language_spanish",
        "spanish_household_language_limited_english_speaking_household",
        "spanish_household_language_not_limited_english_speaking"
      ],
      [
        "household_language_other_indo-european_languages",
        "indo-euro-household_language_limited_english_speaking_household",
        "indo-euro_household_language_not_limited_english_speaking"
      ],
      [
        "household_language_asian_and_pacific_island_languages",
        "asian_pi_household_language_limited_english_speaking_household",
        "asian_pi_household_language_not_limited_english_speaking"
      ],
      [
        "household_language_other_languages",
        "other_household_language_limited_english_speaking_household",
        "other_household_language_not_limited_english_speaking"
      ]
    ],
    "labels": [
      "Total",
      "English Only",
      [
        "Spanish",
        "Limited English Speaking Household",
        "Not a limited English speaking household"
      ],
      [
        "Other Indo-European Languages",
        "Limited English Speaking Household",
        "Not a limited English speaking household"
      ],
      [
        "Asian and Pacific Island Languages",
        "Limited English Speaking Household",
        "Not a limited English speaking household"
      ],
      [
        "Other Languages",
        "Limited English Speaking Household",
        "Not a limited English speaking household"
      ]
    ]
  },
  {
    "title": "Monthly Housing Costs*",
    "keys": [
      "monthly_housing_costs_total",
      "monthly_housing_costs_less_than_$100",
      "monthly_housing_costs_$100_to_$199",
      "monthly_housing_costs_$200_to_$299",
      "monthly_housing_costs_$300_to_$399",
      "monthly_housing_costs_$400_to_$499",
      "monthly_housing_costs_$500_to_$599",
      "monthly_housing_costs_$600_to_$699",
      "monthly_housing_costs_$700_to_$799",
      "monthly_housing_costs_$800_to_$899",
      "monthly_housing_costs_$900_to_$999",
      "monthly_housing_costs_$1,000_to_$1,499",
      "monthly_housing_costs_$1,500_to_$1,999",
      "monthly_housing_costs_$2,000_to_$2,499",
      "monthly_housing_costs_$2,500_to_$2,999",
      "monthly_housing_costs_$3,000_or_more",
      "monthly_housing_costs_no_cash_rent"
    ],
    "labels": [
      "Total",
      "Less than $100",
      "$100 to $199",
      "$200 to $299",
      "$300 to $399",
      "$400 to $499",
      "$500 to $599",
      "$600 to $699",
      "$700 to $799",
      "$800 to $899",
      "$900 to $999",
      "$1,000 to $1,499",
      "$1,500 to $1,999",
      "$2,000 to $2,499",
      "$2,500 to $2,999",
      "$3,000 or More",
      "No Cash Rent"
    ]
  },
  {
    "title": "Vehicle Availability*",
    "keys": [
      "vehicle_availability_total",
      "vehicle_availability_no_vehicle_available",
      "vehicle_availability_1_vehicle_available",
      "vehicle_availability_2_vehicles_available",
      "vehicle_availability_3+_vehicles_available"
    ],
    "labels": [
      "Total",
      "No Vehicle Available",
      "1 Vehicle Available",
      "2 Vehicles Available",
      "3+ Vehicles Available"
    ]
  },
  {
    "title": "Household Type For Children Under 18 Years In Households*",
    "keys": [
      "household_type-children_under_18_years_in_households_total",
      "household_type-children_under_18_years_in_married_household",
      "household_type-children_under_18_years_in_cohabiting_household",
      "household_type-children_under_18_years_in_solo_male_household",
      "household_type-children_under_18_years_in_solo_female_household"
    ],
    "labels": [
      "Total",
      "Married-couple household",
      "Cohabiting couple household",
      "In male householder, no spouse/partner present household",
      "In female householder, no spouse/partner present household"
    ]
  }
]